…
# Reading in the Data

Here we are going to read in our `diabetes` data and then combine groups
1 and 2 together. Then we are going to print the first couple of
observations just to give an idea to our viewer what our data looks
like.

``` r
(
  diabetes <- read_csv("diabetes_binary_health_indicators_BRFSS2015.csv") %>% 
    mutate(Education = ifelse(Education %in% c(1, 2), 1, Education))
)
```

    ## # A tibble: 253,680 × 22
    ##    Diabetes_binary HighBP HighChol CholCheck   BMI Smoker Stroke
    ##              <dbl>  <dbl>    <dbl>     <dbl> <dbl>  <dbl>  <dbl>
    ##  1               0      1        1         1    40      1      0
    ##  2               0      0        0         0    25      1      0
    ##  3               0      1        1         1    28      0      0
    ##  4               0      1        0         1    27      0      0
    ##  5               0      1        1         1    24      0      0
    ##  6               0      1        1         1    25      1      0
    ##  7               0      1        0         1    30      1      0
    ##  8               0      1        1         1    25      1      0
    ##  9               1      1        1         1    30      1      0
    ## 10               0      0        0         1    24      0      0
    ## # ℹ 253,670 more rows
    ## # ℹ 15 more variables: HeartDiseaseorAttack <dbl>, PhysActivity <dbl>,
    ## #   Fruits <dbl>, Veggies <dbl>, HvyAlcoholConsump <dbl>, AnyHealthcare <dbl>,
    ## #   NoDocbcCost <dbl>, GenHlth <dbl>, MentHlth <dbl>, PhysHlth <dbl>,
    ## #   DiffWalk <dbl>, Sex <dbl>, Age <dbl>, Education <dbl>, Income <dbl>
…
Now we have the data in the correct form and we are going to take a
quick glance to call the changes so we can see all the new
modifications.

``` r
diabetes
```

    ## # A tibble: 253,680 × 22
    ##    Diabetes_binary HighBP HighChol CholCheck   BMI Smoker Stroke
    ##    <fct>           <fct>  <fct>    <fct>     <dbl> <fct>  <fct> 
    ##  1 no              yes    yes      yes          40 yes    no    
    ##  2 no              no     no       no           25 yes    no    
    ##  3 no              yes    yes      yes          28 no     no    
    ##  4 no              yes    no       yes          27 no     no    
    ##  5 no              yes    yes      yes          24 no     no    
    ##  6 no              yes    yes      yes          25 yes    no    
    ##  7 no              yes    no       yes          30 yes    no    
    ##  8 no              yes    yes      yes          25 yes    no    
    ##  9 yes             yes    yes      yes          30 yes    no    
    ## 10 no              no     no       yes          24 no     no    
    ## # ℹ 253,670 more rows
    ## # ℹ 15 more variables: HeartDiseaseorAttack <fct>, PhysActivity <fct>,
    ## #   Fruits <fct>, Veggies <fct>, HvyAlcoholConsump <fct>, AnyHealthcare <fct>,
    ## #   NoDocbcCost <fct>, GenHlth <fct>, MentHlth <dbl>, PhysHlth <dbl>,
    ## #   DiffWalk <fct>, Sex <fct>, Age <fct>, Education <fct>, Income <fct>
…
